pl\eurobet\web\authentication\AuthenticationController.class
pl\eurobet\web\config\AppWebInitializer.class
pl\eurobet\core\team\TeamDaoImpl.class
pl\eurobet\web\user\ranking\RankingController.class
pl\eurobet\core\bet\BetDao.class
pl\eurobet\core\match\MatchDaoImpl.class
pl\eurobet\core\team\TeamDao.class
pl\eurobet\core\bet\Bet.class
pl\eurobet\web\config\AppWebConfig.class
pl\eurobet\core\BaseDao.class
pl\eurobet\core\team\Team.class
pl\eurobet\core\match\Match.class
pl\eurobet\web\user\match\MatchController.class
pl\eurobet\core\bet\BetDaoImpl.class
pl\eurobet\web\config\SecurityInitializer.class
pl\eurobet\core\config\SecurityConfig.class
pl\eurobet\core\user\UserDaoImpl.class
pl\eurobet\core\AbstractBaseDao.class
pl\eurobet\web\admin\user\UserController.class
pl\eurobet\core\user\User.class
pl\eurobet\core\user\SessionUserProvider.class
pl\eurobet\web\admin\team\TeamController.class
pl\eurobet\core\match\MatchDao.class
pl\eurobet\core\user\UserLoginSuccessHandler.class
pl\eurobet\core\user\UserProvider.class
pl\eurobet\core\user\UserDao.class
pl\eurobet\core\config\AppConfig.class
pl\eurobet\core\user\UserRole.class
pl\eurobet\core\user\UserDetailService.class
