C:\Users\RENT\Desktop\repos\SoftwareDevelopmentAcademy\FinalProject\euro-bet\src\main\java\pl\eurobet\core\bet\Bet.java
C:\Users\RENT\Desktop\repos\SoftwareDevelopmentAcademy\FinalProject\euro-bet\src\main\java\pl\eurobet\core\user\User.java
C:\Users\RENT\Desktop\repos\SoftwareDevelopmentAcademy\FinalProject\euro-bet\src\main\java\pl\eurobet\core\match\MatchDaoImpl.java
C:\Users\RENT\Desktop\repos\SoftwareDevelopmentAcademy\FinalProject\euro-bet\src\main\java\pl\eurobet\core\team\Team.java
C:\Users\RENT\Desktop\repos\SoftwareDevelopmentAcademy\FinalProject\euro-bet\src\main\java\pl\eurobet\core\user\UserDaoImpl.java
C:\Users\RENT\Desktop\repos\SoftwareDevelopmentAcademy\FinalProject\euro-bet\src\main\java\pl\eurobet\core\rankview\RankView.java
C:\Users\RENT\Desktop\repos\SoftwareDevelopmentAcademy\FinalProject\euro-bet\src\main\java\pl\eurobet\core\match\Match.java
C:\Users\RENT\Desktop\repos\SoftwareDevelopmentAcademy\FinalProject\euro-bet\src\main\java\pl\eurobet\core\user\UserProvider.java
C:\Users\RENT\Desktop\repos\SoftwareDevelopmentAcademy\FinalProject\euro-bet\src\main\java\pl\eurobet\web\config\SecurityInitializer.java
C:\Users\RENT\Desktop\repos\SoftwareDevelopmentAcademy\FinalProject\euro-bet\src\main\java\pl\eurobet\web\user\match\MatchValidator.java
C:\Users\RENT\Desktop\repos\SoftwareDevelopmentAcademy\FinalProject\euro-bet\src\main\java\pl\eurobet\core\bet\BetDaoImpl.java
C:\Users\RENT\Desktop\repos\SoftwareDevelopmentAcademy\FinalProject\euro-bet\src\main\java\pl\eurobet\core\AbstractBaseDao.java
C:\Users\RENT\Desktop\repos\SoftwareDevelopmentAcademy\FinalProject\euro-bet\src\main\java\pl\eurobet\core\team\TeamDaoImpl.java
C:\Users\RENT\Desktop\repos\SoftwareDevelopmentAcademy\FinalProject\euro-bet\src\main\java\pl\eurobet\web\config\AppWebConfig.java
C:\Users\RENT\Desktop\repos\SoftwareDevelopmentAcademy\FinalProject\euro-bet\src\main\java\pl\eurobet\core\user\UserDetailService.java
C:\Users\RENT\Desktop\repos\SoftwareDevelopmentAcademy\FinalProject\euro-bet\src\main\java\pl\eurobet\core\user\UserDao.java
C:\Users\RENT\Desktop\repos\SoftwareDevelopmentAcademy\FinalProject\euro-bet\src\main\java\pl\eurobet\core\bet\BetDao.java
C:\Users\RENT\Desktop\repos\SoftwareDevelopmentAcademy\FinalProject\euro-bet\src\main\java\pl\eurobet\core\user\UserLoginSuccessHandler.java
C:\Users\RENT\Desktop\repos\SoftwareDevelopmentAcademy\FinalProject\euro-bet\src\main\java\pl\eurobet\core\config\SecurityConfig.java
C:\Users\RENT\Desktop\repos\SoftwareDevelopmentAcademy\FinalProject\euro-bet\src\main\java\pl\eurobet\core\user\SessionUserProvider.java
C:\Users\RENT\Desktop\repos\SoftwareDevelopmentAcademy\FinalProject\euro-bet\src\main\java\pl\eurobet\web\authentication\AuthenticationController.java
C:\Users\RENT\Desktop\repos\SoftwareDevelopmentAcademy\FinalProject\euro-bet\src\main\java\pl\eurobet\core\match\MatchDao.java
C:\Users\RENT\Desktop\repos\SoftwareDevelopmentAcademy\FinalProject\euro-bet\src\main\java\pl\eurobet\web\config\AppWebInitializer.java
C:\Users\RENT\Desktop\repos\SoftwareDevelopmentAcademy\FinalProject\euro-bet\src\main\java\pl\eurobet\web\admin\team\TeamController.java
C:\Users\RENT\Desktop\repos\SoftwareDevelopmentAcademy\FinalProject\euro-bet\src\main\java\pl\eurobet\core\BaseDao.java
C:\Users\RENT\Desktop\repos\SoftwareDevelopmentAcademy\FinalProject\euro-bet\src\main\java\pl\eurobet\core\user\UserRole.java
C:\Users\RENT\Desktop\repos\SoftwareDevelopmentAcademy\FinalProject\euro-bet\src\main\java\pl\eurobet\core\team\TeamDao.java
C:\Users\RENT\Desktop\repos\SoftwareDevelopmentAcademy\FinalProject\euro-bet\src\main\java\pl\eurobet\web\user\bet\BetController.java
C:\Users\RENT\Desktop\repos\SoftwareDevelopmentAcademy\FinalProject\euro-bet\src\main\java\pl\eurobet\core\bet\BetManager.java
C:\Users\RENT\Desktop\repos\SoftwareDevelopmentAcademy\FinalProject\euro-bet\src\main\java\pl\eurobet\core\bet\BetManagerImpl.java
C:\Users\RENT\Desktop\repos\SoftwareDevelopmentAcademy\FinalProject\euro-bet\src\main\java\pl\eurobet\web\user\match\MatchController.java
C:\Users\RENT\Desktop\repos\SoftwareDevelopmentAcademy\FinalProject\euro-bet\src\main\java\pl\eurobet\core\config\AppConfig.java
C:\Users\RENT\Desktop\repos\SoftwareDevelopmentAcademy\FinalProject\euro-bet\src\main\java\pl\eurobet\web\user\UserController.java
